{
    "items": [
      {
        "id": 570826191,
        "title": "Chaquetón cuadros negros y blanco ",
        "brand_id": 51,
        "size_id": 210,
        "status_id": 2,
        "disposal_conditions": 6,
        "user_id": 39370543,
        "owner_id": null,
        "country_id": 7,
        "catalog_id": 1860,
        "color1_id": 1,
        "color2_id": 12,
        "package_size_id": 2,
        "is_hidden": 0,
        "is_reserved": 0,
        "reserved_for_user_id": null,
        "is_visible": 1,
        "is_unisex": 0,
        "is_closed": 0,
        "is_admin_alerted": false,
        "active_bid_count": 1,
        "favourite_count": 9,
        "view_count": 142,
        "moderation_status": 0,
        "last_push_up_at": "2020-08-19T12:16:08+02:00",
        "description": "Talla 40/42",
        "package_size_standard": true,
        "item_closing_action": null,
        "related_catalog_ids": [],
        "related_catalogs_enabled": false,
        "size": "XL",
        "brand": "Pull & Bear",
        "composition": "",
        "extra_conditions": "",
        "is_for_sell": true,
        "is_for_swap": true,
        "is_for_give_away": false,
        "is_handicraft": false,
        "is_draft": false,
        "label": "Pull & Bear",
        "real_value_numeric": null,
        "original_price_numeric": "7.0",
        "price_numeric": "7.0",
        "currency": "€",
        "created_at_ts": "2020-08-11T13:16:55+02:00",
        "updated_at_ts": "2020-08-21T12:20:01+02:00",
        "user_updated_at_ts": "2020-08-21T12:20:01+02:00",
        "photos": [
          {
            "id": 1986044427,
            "image_no": 1,
            "width": 600,
            "height": 800,
            "dominant_color": "#3D3430",
            "dominant_color_opaque": "#C5C2C1",
            "url": "https://images.vinted.net/thumbs/f800/01_00f2b_E43TNF429cwBLRv1fwzq2tHw.jpeg?1597144615-50fc9a9a627b7a8aa5132ce46452d9850f94fb11",
            "is_main": true,
            "thumbnails": [
              {
                "type": "thumb70x100",
                "url": "https://images.vinted.net/thumbs/70x100/01_00f2b_E43TNF429cwBLRv1fwzq2tHw.jpeg?1597144615-f4dad5f4e2f7b682fcf32ea09872dd1ed1babb72",
                "width": 70,
                "height": 100,
                "original_size": null
              },
              {
                "type": "thumb150x210",
                "url": "https://images.vinted.net/thumbs/150x210/01_00f2b_E43TNF429cwBLRv1fwzq2tHw.jpeg?1597144615-7512699a43a7003d04005a23e0e8c9dd442c7323",
                "width": 150,
                "height": 210,
                "original_size": null
              },
              {
                "type": "thumb310x430",
                "url": "https://images.vinted.net/thumbs/310x430/01_00f2b_E43TNF429cwBLRv1fwzq2tHw.jpeg?1597144615-24568e45ea9dee6a187a4dd38e674ea2c7a2b848",
                "width": 310,
                "height": 430,
                "original_size": null
              },
              {
                "type": "thumb428x624",
                "url": "https://images.vinted.net/thumbs/f800/01_00f2b_E43TNF429cwBLRv1fwzq2tHw.jpeg?1597144615-50fc9a9a627b7a8aa5132ce46452d9850f94fb11",
                "width": 321,
                "height": 428,
                "original_size": true
              },
              {
                "type": "thumb624x428",
                "url": "https://images.vinted.net/thumbs/f800/01_00f2b_E43TNF429cwBLRv1fwzq2tHw.jpeg?1597144615-50fc9a9a627b7a8aa5132ce46452d9850f94fb11",
                "width": 468,
                "height": 624,
                "original_size": true
              },
              {
                "type": "thumb364x428",
                "url": "https://images.vinted.net/thumbs/f800/01_00f2b_E43TNF429cwBLRv1fwzq2tHw.jpeg?1597144615-50fc9a9a627b7a8aa5132ce46452d9850f94fb11",
                "width": 273,
                "height": 364,
                "original_size": true
              }
            ],
            "high_resolution": {
              "id": "01_00f2b_E43TNF429cwBLRv1fwzq2tHw",
              "timestamp": 1597144615,
              "orientation": null
            },
            "is_suspicious": false,
            "full_size_url": "https://images.vinted.net/thumbs/01_00f2b_E43TNF429cwBLRv1fwzq2tHw.jpeg?1597144615-f74b447317301039de49ce29ff8f4237ab27a1ff"
          },
          {
            "id": 1986044486,
            "image_no": 2,
            "width": 600,
            "height": 800,
            "dominant_color": "#645349",
            "dominant_color_opaque": "#D1CBC8",
            "url": "https://images.vinted.net/thumbs/f800/01_0049c_kyyGNWg7pBonChkAdZNdR39T.jpeg?1597144615-030fb05dfde4b34ddec8ccaca6e0b583a99aa5ee",
            "is_main": false,
            "thumbnails": [
              {
                "type": "thumb70x100",
                "url": "https://images.vinted.net/thumbs/70x100/01_0049c_kyyGNWg7pBonChkAdZNdR39T.jpeg?1597144615-20f434c545afadcc7ad8f73ce11fe05cb1c7a105",
                "width": 70,
                "height": 100,
                "original_size": null
              },
              {
                "type": "thumb150x210",
                "url": "https://images.vinted.net/thumbs/150x210/01_0049c_kyyGNWg7pBonChkAdZNdR39T.jpeg?1597144615-b45108cffe92adc0be64b0829751d6ba5bb76617",
                "width": 150,
                "height": 210,
                "original_size": null
              },
              {
                "type": "thumb310x430",
                "url": "https://images.vinted.net/thumbs/310x430/01_0049c_kyyGNWg7pBonChkAdZNdR39T.jpeg?1597144615-7b23458ced12dc9b059b2755d7811a61119c1ec6",
                "width": 310,
                "height": 430,
                "original_size": null
              },
              {
                "type": "thumb428x624",
                "url": "https://images.vinted.net/thumbs/f800/01_0049c_kyyGNWg7pBonChkAdZNdR39T.jpeg?1597144615-030fb05dfde4b34ddec8ccaca6e0b583a99aa5ee",
                "width": 321,
                "height": 428,
                "original_size": true
              },
              {
                "type": "thumb624x428",
                "url": "https://images.vinted.net/thumbs/f800/01_0049c_kyyGNWg7pBonChkAdZNdR39T.jpeg?1597144615-030fb05dfde4b34ddec8ccaca6e0b583a99aa5ee",
                "width": 468,
                "height": 624,
                "original_size": true
              },
              {
                "type": "thumb364x428",
                "url": "https://images.vinted.net/thumbs/f800/01_0049c_kyyGNWg7pBonChkAdZNdR39T.jpeg?1597144615-030fb05dfde4b34ddec8ccaca6e0b583a99aa5ee",
                "width": 273,
                "height": 364,
                "original_size": true
              }
            ],
            "high_resolution": {
              "id": "01_0049c_kyyGNWg7pBonChkAdZNdR39T",
              "timestamp": 1597144615,
              "orientation": null
            },
            "is_suspicious": false,
            "full_size_url": "https://images.vinted.net/thumbs/01_0049c_kyyGNWg7pBonChkAdZNdR39T.jpeg?1597144615-b98bd4c2adeac2eebec1d237ae2837f202e86d65"
          },
          {
            "id": 1986044566,
            "image_no": 3,
            "width": 600,
            "height": 800,
            "dominant_color": "#403431",
            "dominant_color_opaque": "#C6C2C1",
            "url": "https://images.vinted.net/thumbs/f800/01_01f76_5ZxzhCRhgtMHU1ai1MuTCVHM.jpeg?1597144615-aea6c2ee249c8f135f82884ca3ff6b2c668c4fa2",
            "is_main": false,
            "thumbnails": [
              {
                "type": "thumb70x100",
                "url": "https://images.vinted.net/thumbs/70x100/01_01f76_5ZxzhCRhgtMHU1ai1MuTCVHM.jpeg?1597144615-631aecab83173b4960afd50ac81206aaf0d4db9a",
                "width": 70,
                "height": 100,
                "original_size": null
              },
              {
                "type": "thumb150x210",
                "url": "https://images.vinted.net/thumbs/150x210/01_01f76_5ZxzhCRhgtMHU1ai1MuTCVHM.jpeg?1597144615-69c881ed56bcf08e2f086bd56a47d55d47625d0f",
                "width": 150,
                "height": 210,
                "original_size": null
              },
              {
                "type": "thumb310x430",
                "url": "https://images.vinted.net/thumbs/310x430/01_01f76_5ZxzhCRhgtMHU1ai1MuTCVHM.jpeg?1597144615-20850d28c57ffed12792fa2061dec621027bf2e9",
                "width": 310,
                "height": 430,
                "original_size": null
              },
              {
                "type": "thumb428x624",
                "url": "https://images.vinted.net/thumbs/f800/01_01f76_5ZxzhCRhgtMHU1ai1MuTCVHM.jpeg?1597144615-aea6c2ee249c8f135f82884ca3ff6b2c668c4fa2",
                "width": 321,
                "height": 428,
                "original_size": true
              },
              {
                "type": "thumb624x428",
                "url": "https://images.vinted.net/thumbs/f800/01_01f76_5ZxzhCRhgtMHU1ai1MuTCVHM.jpeg?1597144615-aea6c2ee249c8f135f82884ca3ff6b2c668c4fa2",
                "width": 468,
                "height": 624,
                "original_size": true
              },
              {
                "type": "thumb364x428",
                "url": "https://images.vinted.net/thumbs/f800/01_01f76_5ZxzhCRhgtMHU1ai1MuTCVHM.jpeg?1597144615-aea6c2ee249c8f135f82884ca3ff6b2c668c4fa2",
                "width": 273,
                "height": 364,
                "original_size": true
              }
            ],
            "high_resolution": {
              "id": "01_01f76_5ZxzhCRhgtMHU1ai1MuTCVHM",
              "timestamp": 1597144615,
              "orientation": null
            },
            "is_suspicious": false,
            "full_size_url": "https://images.vinted.net/thumbs/01_01f76_5ZxzhCRhgtMHU1ai1MuTCVHM.jpeg?1597144615-64fa1a143a7bf6f9d31f96a17c0f16d5ddc737bb"
          }
        ],
        "push_up_interval": 604800,
        "can_be_sold": true,
        "can_feedback": false,
        "path": "/hommes/manteaux-rembourres/570826191-chaqueton-cuadros-negros-y-blanco",
        "item_reservation_id": null,
        "receiver_id": null,
        "promoted_until": "2020-08-26T12:16:08+02:00",
        "discount_price_numeric": null,
        "badge": null,
        "material_id": null,
        "author": null,
        "book_title": null,
        "isbn": null,
        "defect_ids": [],
        "user": {
          "id": 39370543,
          "anon_id": "145cc5fa-df1b-429a-8a2e-328ccfd30fbd",
          "login": "rafasc",
          "real_name": null,
          "email": null,
          "birthday": null,
          "gender": "",
          "item_count": 2,
          "msg_template_count": 0,
          "given_item_count": 0,
          "taken_item_count": 0,
          "favourite_topic_count": 0,
          "forum_msg_count": 0,
          "forum_topic_count": 0,
          "followers_count": 1,
          "following_count": 0,
          "following_brands_count": 0,
          "positive_feedback_count": 0,
          "neutral_feedback_count": 0,
          "negative_feedback_count": 0,
          "meeting_transaction_count": 0,
          "account_status": 9,
          "email_bounces": null,
          "feedback_reputation": 0,
          "account_ban_date": null,
          "forum_ban_date": null,
          "is_on_holiday": false,
          "is_publish_photos_agreed": false,
          "is_shadow_banned": false,
          "is_identity": false,
          "allow_personalization": true,
          "expose_location": true,
          "third_party_tracking": true,
          "created_at": "2020-08-11T12:52:34+02:00",
          "last_loged_on_ts": "2020-08-20T15:19:09+02:00",
          "city_id": null,
          "city": "",
          "country_id": 7,
          "country_code": "ES",
          "country_title_local": "España",
          "country_title": "España",
          "contacts_permission": null,
          "contacts": null,
          "photo": {
            "id": 33473452,
            "width": 600,
            "height": 800,
            "temp_uuid": null,
            "url": "https://images.vinted.net/thumbs/f800/01_01543_qaPXxddYMM314JG51tSiqLkr.jpeg?1597143156-c994e5861b58e7537bcd30f5ba3ffc9322c4e696",
            "dominant_color": "#31abc2",
            "dominant_color_opaque": "#C1E6ED",
            "thumbnails": [
              {
                "type": "thumb310",
                "url": "https://images.vinted.net/thumbs/310x310/01_01543_qaPXxddYMM314JG51tSiqLkr.jpeg?1597143156-3df0471e8272e27838eae2a3907f6eda56128636",
                "width": 310,
                "height": 310,
                "original_size": null
              },
              {
                "type": "thumb150",
                "url": "https://images.vinted.net/thumbs/150x150/01_01543_qaPXxddYMM314JG51tSiqLkr.jpeg?1597143156-99b9ebee011dc1534238f61f21fdcb3a31297dac",
                "width": 150,
                "height": 150,
                "original_size": null
              },
              {
                "type": "thumb100",
                "url": "https://images.vinted.net/thumbs/100x100/01_01543_qaPXxddYMM314JG51tSiqLkr.jpeg?1597143156-7cbb068191baff00574f48195c93da3cae1f406a",
                "width": 100,
                "height": 100,
                "original_size": null
              },
              {
                "type": "thumb50",
                "url": "https://images.vinted.net/thumbs/50x50/01_01543_qaPXxddYMM314JG51tSiqLkr.jpeg?1597143156-ec66228d64be48f9a63b802bf043ccf1bad4c4b1",
                "width": 50,
                "height": 50,
                "original_size": null
              },
              {
                "type": "thumb20",
                "url": "https://images.vinted.net/thumbs/20x20/01_01543_qaPXxddYMM314JG51tSiqLkr.jpeg?1597143156-2ac82df28d9049cfbfe9fc0385e2274fa2992399",
                "width": 20,
                "height": 20,
                "original_size": null
              }
            ],
            "is_suspicious": false,
            "orientation": null,
            "high_resolution": {
              "id": "01_01543_qaPXxddYMM314JG51tSiqLkr",
              "timestamp": 1597143156,
              "orientation": null
            },
            "full_size_url": "https://images.vinted.net/thumbs/01_01543_qaPXxddYMM314JG51tSiqLkr.jpeg?1597143156-75563db93868b4e5f262673b5b9099e36c5c6fc4"
          },
          "path": "/member/39370543-rafasc",
          "is_god": false,
          "is_tester": false,
          "moderator": false,
          "volunteer_moderator": false,
          "hide_feedback": false,
          "can_post_big_forum_photos": false,
          "allow_direct_messaging": true,
          "bundle_discount": null,
          "donation_configuration": null,
          "total_items_count": 2,
          "about": "",
          "vinted_club": {
            "level": 0,
            "invited": false,
            "active": false,
            "landing_page_url": "https://www.vinted.fr/member/instructions/mobile/vinted_club"
          },
          "verification": {
            "email": {
              "valid": false,
              "available": true
            },
            "facebook": {
              "valid": true,
              "verified_at": "2020-08-11T12:52:19+02:00",
              "available": true,
              "friend_count": null
            },
            "google": {
              "valid": false,
              "verified_at": null,
              "available": true
            },
            "phone": {
              "valid": false,
              "verified_at": null,
              "available": true
            }
          },
          "closet_promoted_until": null,
          "avg_response_time": null,
          "carrier_ids": [
            11,
            33,
            34,
            36,
            44,
            4,
            9
          ],
          "carriers_without_custom_ids": [
            11,
            33,
            34,
            36,
            44,
            4
          ],
          "updated_on": 1597925055,
          "is_hated": false,
          "hates_you": false,
          "is_favourite": false,
          "profile_url": "https://www.vinted.es/member/39370543-rafasc",
          "facebook_user_id": null,
          "is_online": false,
          "has_promoted_closet": false,
          "can_view_profile": true,
          "can_bundle": true,
          "last_loged_on": "ayer 03:19 PM",
          "accepted_pay_in_methods": [
            {
              "id": 1,
              "code": "CREDIT_CARD",
              "requires_credit_card": true,
              "event_tracking_code": "cc",
              "icon": "credit-card",
              "enabled": true,
              "translated_name": "Tarjeta",
              "note": "La información de tu tarjeta nunca será compartida con el vendedor. Vinted no almacena los datos de la tarjeta sin tu permiso."
            },
            {
              "id": 16,
              "code": "APPLE_PAY",
              "requires_credit_card": false,
              "event_tracking_code": "apple_pay",
              "icon": "apple-pay",
              "enabled": true,
              "translated_name": "Apple Pay",
              "note": ""
            },
            {
              "id": 10,
              "code": "MANGOPAY_PAYPAL",
              "requires_credit_card": false,
              "event_tracking_code": "mangopay_paypal",
              "icon": "paypal",
              "enabled": true,
              "translated_name": "PayPal",
              "note": ""
            },
            {
              "id": 9,
              "code": "IDEAL",
              "requires_credit_card": false,
              "event_tracking_code": "ideal",
              "icon": "ideal",
              "enabled": true,
              "translated_name": "iDeal",
              "note": ""
            }
          ],
          "localization": "manual",
          "default_address": null
        },
        "can_edit": false,
        "can_delete": false,
        "can_request_reservation": true,
        "can_cancel_reservation_request": false,
        "can_reserve": false,
        "can_transfer": false,
        "instant_buy": true,
        "can_close": false,
        "can_buy": true,
        "can_bundle": true,
        "can_ask_seller": true,
        "can_favourite": true,
        "user_login": "rafasc",
        "city_id": null,
        "city": "",
        "country": "España",
        "nearby": null,
        "distance": null,
        "promoted": true,
        "is_favourite": false,
        "is_mobile": false,
        "bump_badge_visible": false,
        "brand_dto": {
          "id": 51,
          "title": "Pull & Bear",
          "slug": "pullbear",
          "favourite_count": 587377,
          "pretty_favourite_count": "587.4K",
          "item_count": 1906315,
          "pretty_item_count": "1.9M",
          "is_visible_in_listings": true,
          "path": "/brand/pullbear",
          "requires_authenticity_check": false,
          "url": "https://www.vinted.es/brand/pullbear",
          "is_favourite": false,
          "is_hated": false
        },
        "url": "https://www.vinted.es/hommes/manteaux-rembourres/570826191-chaqueton-cuadros-negros-y-blanco",
        "accepted_pay_in_methods": [
          {
            "id": 1,
            "code": "CREDIT_CARD",
            "requires_credit_card": true,
            "event_tracking_code": "cc",
            "icon": "credit-card",
            "enabled": true,
            "translated_name": "Tarjeta",
            "note": "La información de tu tarjeta nunca será compartida con el vendedor. Vinted no almacena los datos de la tarjeta sin tu permiso."
          },
          {
            "id": 10,
            "code": "MANGOPAY_PAYPAL",
            "requires_credit_card": false,
            "event_tracking_code": "mangopay_paypal",
            "icon": "paypal",
            "enabled": true,
            "translated_name": "PayPal",
            "note": ""
          }
        ],
        "created_at": "08/11 01:16 PM",
        "color1": "Negro",
        "color2": "Blanco",
        "material": null,
        "status": "Muy bueno",
        "secure_purchase": true,
        "secure_purchase_badge": false,
        "performance": null,
        "stats_visible": true,
        "can_push_up": false,
        "price": "7,00 €",
        "discount_price": "",
        "real_value": "",
        "fees": null,
        "size_guide_faq_entry_id": 515,
        "localization": "manual"
      }
    ],
    "item_scores_by_id": {
      "570826191": 5.812037
    },
    "pagination": {
      "current_page": 1,
      "total_pages": 10000,
      "total_entries": 10000,
      "per_page": 1,
      "time": 1598005426
    },
    "search_correlation_id": "150b9529-35ff-4146-b161-36a51107bf01",
    "search_session_id": "53a4df63-5690-440b-840b-77154cc1d85f",
    "code": 0
  }